\relax 
\citation{elconfidencial}
\citation{monroy_juan_2019}
\newlabel{usepackage}{{}{}}
\newlabel{sec:titulo}{{}{}}
\newlabel{sec:resumen}{{}{}}
\@writefile{toc}{\contentsline {section}{\numberline {I}\textbf  {Introducci\'on}}{}{}\protected@file@percent }
\newlabel{sec:introduccion}{{I}{}}
\@writefile{toc}{\contentsline {section}{\numberline {II}\textbf  {Marco Te\'orico}}{}{}\protected@file@percent }
\newlabel{sec:marcoteorico}{{II}{}}
\@writefile{toc}{\contentsline {subsubsection}{\numberline {\mbox  {II-}1}\textbf  {Raspberry PI 3 B+}}{}{}\protected@file@percent }
\@writefile{lof}{\contentsline {figure}{\numberline {1}{\ignorespaces Raspberry PI 3 B+}}{}{}\protected@file@percent }
\newlabel{fig:RPI}{{1}{}}
\@writefile{lof}{\contentsline {figure}{\numberline {2}{\ignorespaces Comparacion de Raspberry }}{}{}\protected@file@percent }
\newlabel{fig:CRPI}{{2}{}}
\@writefile{toc}{\contentsline {subsubsection}{\numberline {\mbox  {II-}2}\textbf  {Sensor de Movimiento MPU 6050}}{}{}\protected@file@percent }
\citation{monroy_juan_2019}
\citation{monroy_juan_2019}
\citation{T-ESPE-053581}
\citation{monroy_juan_2019}
\citation{rojasimplementacion}
\citation{elmbedwiki}
\@writefile{lof}{\contentsline {figure}{\numberline {3}{\ignorespaces MPU 6050}}{}{}\protected@file@percent }
\newlabel{fig:MPU}{{3}{}}
\@writefile{toc}{\contentsline {paragraph}{\numberline {\mbox  {II-}2a}\textbf  {Aceler\'ometro}}{}{}\protected@file@percent }
\newlabel{eq:Y}{{1}{}}
\newlabel{eq:X}{{2}{}}
\@writefile{toc}{\contentsline {paragraph}{\numberline {\mbox  {II-}2b}\textbf  {Giroscopio}}{}{}\protected@file@percent }
\newlabel{eq:A1}{{3}{}}
\newlabel{eq:A1}{{4}{}}
\newlabel{eq:A1}{{5}{}}
\@writefile{toc}{\contentsline {subsubsection}{\numberline {\mbox  {II-}3}\textbf  {Tarjeta STM32}}{}{}\protected@file@percent }
\@writefile{lof}{\contentsline {figure}{\numberline {4}{\ignorespaces STM32F746}}{}{}\protected@file@percent }
\newlabel{fig:STM32}{{4}{}}
\@writefile{toc}{\contentsline {subsubsection}{\numberline {\mbox  {II-}4}\textbf  {MBED}}{}{}\protected@file@percent }
\citation{ACAPMI}
\citation{Bejob}
\citation{akademus}
\citation{geeknetici}
\@writefile{lof}{\contentsline {figure}{\numberline {5}{\ignorespaces Mbed}}{}{}\protected@file@percent }
\newlabel{fig:Mbed}{{5}{}}
\@writefile{toc}{\contentsline {subsubsection}{\numberline {\mbox  {II-}5}\textbf  {Matlab}}{}{}\protected@file@percent }
\@writefile{lof}{\contentsline {figure}{\numberline {6}{\ignorespaces Matlab}}{}{}\protected@file@percent }
\newlabel{fig:Matlab}{{6}{}}
\@writefile{toc}{\contentsline {subsubsection}{\numberline {\mbox  {II-}6}\textbf  {Arduino}}{}{}\protected@file@percent }
\@writefile{lof}{\contentsline {figure}{\numberline {7}{\ignorespaces Arduino}}{}{}\protected@file@percent }
\newlabel{fig:Arduino}{{7}{}}
\@writefile{toc}{\contentsline {subsubsection}{\numberline {\mbox  {II-}7}\textbf  {Phyton}}{}{}\protected@file@percent }
\@writefile{lof}{\contentsline {figure}{\numberline {8}{\ignorespaces Phytom}}{}{}\protected@file@percent }
\newlabel{fig:Phytom}{{8}{}}
\@writefile{toc}{\contentsline {subsubsection}{\numberline {\mbox  {II-}8}\textbf  {VNC}}{}{}\protected@file@percent }
\@writefile{toc}{\contentsline {subsubsection}{\numberline {\mbox  {II-}9}\textbf  {Lectura del Sensor}}{}{}\protected@file@percent }
\citation{rojasimplementacion}
\@writefile{lof}{\contentsline {figure}{\numberline {9}{\ignorespaces VNC}}{}{}\protected@file@percent }
\newlabel{fig:VNC}{{9}{}}
\@writefile{toc}{\contentsline {paragraph}{\numberline {\mbox  {II-}9a}\textbf  {Recepci\'on de datos }}{}{}\protected@file@percent }
\@writefile{toc}{\contentsline {subsubsection}{\numberline {\mbox  {II-}10}\textbf  {Comunicaci\'on I2C }}{}{}\protected@file@percent }
\@writefile{toc}{\contentsline {section}{\numberline {III}Resultados}{}{}\protected@file@percent }
\newlabel{sec:resultados}{{III}{}}
\@writefile{toc}{\contentsline {subsubsection}{\numberline {\mbox  {III-}1}\textbf  {Comunicaci\'on Serial STM32 e IMU con Matlab}}{}{}\protected@file@percent }
\@writefile{lof}{\contentsline {figure}{\numberline {10}{\ignorespaces Conexion STM32 - IMU}}{}{}\protected@file@percent }
\newlabel{fig:CNX}{{10}{}}
\@writefile{lof}{\contentsline {figure}{\numberline {11}{\ignorespaces Codigo en Mbed}}{}{}\protected@file@percent }
\newlabel{fig:Codigo}{{11}{}}
\@writefile{toc}{\contentsline {subsubsection}{\numberline {\mbox  {III-}2}\textbf  {Comunicaci\'on Serial STM32 e IMU con Raspberry}}{}{}\protected@file@percent }
\@writefile{lof}{\contentsline {figure}{\numberline {12}{\ignorespaces Codigo Matlab }}{}{}\protected@file@percent }
\newlabel{fig:Codigo2}{{12}{}}
\@writefile{lof}{\contentsline {figure}{\numberline {13}{\ignorespaces Grafica}}{}{}\protected@file@percent }
\newlabel{fig:Gf}{{13}{}}
\bibstyle{IEEEtran}
\bibdata{bibfile}
\bibcite{elconfidencial}{1}
\bibcite{monroy_juan_2019}{2}
\bibcite{T-ESPE-053581}{3}
\bibcite{rojasimplementacion}{4}
\bibcite{elmbedwiki}{5}
\bibcite{ACAPMI}{6}
\@writefile{lof}{\contentsline {figure}{\numberline {14}{\ignorespaces Conexion RPI}}{}{}\protected@file@percent }
\newlabel{fig:CNX2}{{14}{}}
\@writefile{lof}{\contentsline {figure}{\numberline {15}{\ignorespaces Codigo Phyton}}{}{}\protected@file@percent }
\newlabel{fig:Codigo3}{{15}{}}
\@writefile{lof}{\contentsline {figure}{\numberline {16}{\ignorespaces Grafica2}}{}{}\protected@file@percent }
\newlabel{fig:Gf2}{{16}{}}
\@writefile{toc}{\contentsline {subsubsection}{\numberline {\mbox  {III-}3}\textbf  {Comunicaci\'on SRemota VNC a PC}}{}{}\protected@file@percent }
\@writefile{lof}{\contentsline {figure}{\numberline {17}{\ignorespaces Comando RPI}}{}{}\protected@file@percent }
\newlabel{fig:IP}{{17}{}}
\@writefile{lof}{\contentsline {figure}{\numberline {18}{\ignorespaces Configuraciones}}{}{}\protected@file@percent }
\newlabel{fig:CF}{{18}{}}
\@writefile{toc}{\contentsline {section}{\numberline {IV}Conclusiones}{}{}\protected@file@percent }
\newlabel{sec:conclusiones}{{IV}{}}
\@writefile{toc}{\contentsline {section}{Referencias}{}{}\protected@file@percent }
\bibcite{Bejob}{7}
\bibcite{akademus}{8}
\gdef \@abspage@last{6}
